Analyzing US flight map with sparklyr
…
200199.112002

flights <- airlines %>% group_by(year, carrier, origin, dest) %>% summarise(count=n()) %>% collect
flights

## Source: local data frame [123,737 x 5]
## Groups: year, carrier, origin [24,636]
## 
##     year carrier origin  dest count
##    <int>   <chr>  <chr> <chr> <dbl>
## 1   2006      US    TPA   CLT  2754
## 2   2006      DL    ATL   GSP  1206
## 3   2006      DL    RSW   ATL  2294
## 4   1998      NW    DTW   SDF  1117
## 5   2006      DL    LAX   CVG  1296
## 6   2006      DL    BOS   SLC   710
## 7   2006      DL    SJU   JFK   571
## 8   2000      DL    ATL   PWM   727
## 9   1988      DL    GEG   SLC  1051
## 10  2006      OH    BDL   RSW   351
## # ... with 123,727 more rows

airports <- tbl(sc, "airports_new_pq") %>% collect

2007

flights_aa <- flights %>% filter(year==2007) %>% filter(carrier=="AA") %>% arrange(count)
flights_aa

## Source: local data frame [460 x 5]
## Groups: year, carrier, origin [82]
## 
##     year carrier origin  dest count
##    <int>   <chr>  <chr> <chr> <dbl>
## 1   2007      AA    BOS   JFK     1
## 2   2007      AA    MIA   FLL     1
## 3   2007      AA    BOS   SDF     1
## 4   2007      AA    MIA   XNA     1
## 5   2007      AA    BNA   IAD     1
## 6   2007      AA    XNA   MIA     2
## 7   2007      AA    OGG   ORD     8
## 8   2007      AA    ORD   OGG     8
## 9   2007      AA    EGE   LGA    17
## 10  2007      AA    MTJ   ORD    17
## # ... with 450 more rows
…
